…
**Q**: Now we need to count the number of observations of each characteristic for `dili==none` and `dili==t1`. We can use a single call to `group_by` to do this. If you put two variables in the `group_by` call it will group them hierarchically.  We want to group by `dili` and `characteristic` - you decide which order to put them in (try both and see what happens).  After the `group_by` call, count the number of observations with `summarise`. 

**A**: 


```r
df %>%
  gather(key='characteristic', value='value', -c(id, dili)) %>%
  group_by(characteristic, dili) %>%
  summarise(num_obs=n()) 
```

```
## # A tibble: 26 x 3
## # Groups:   characteristic [?]
##    characteristic dili    num_obs
##    <chr>          <fct>     <int>
##  1 alcohol        control     200
##  2 alcohol        dili         77
##  3 alp            control     200
##  4 alp            dili         77
##  5 alt            control     200
##  6 alt            dili         77
##  7 bili           control     200
##  8 bili           dili         77
##  9 hbv            control     200
## 10 hbv            dili         77
## # ... with 16 more rows
```
…
So change the formula in `summarise` to count the number of non-NA values. 
**A**: 


```r
df %>%
  gather(key='characteristic', value='value', -c(id, dili)) %>%
  group_by(characteristic, dili) %>%
  summarise(num_obs=sum(!is.na(value))) 
```

```
## # A tibble: 26 x 3
## # Groups:   characteristic [?]
##    characteristic dili    num_obs
##    <chr>          <fct>     <int>
##  1 alcohol        control     179
##  2 alcohol        dili         56
##  3 alp            control     187
##  4 alp            dili         77
##  5 alt            control     185
##  6 alt            dili         77
##  7 bili           control     185
##  8 bili           dili         77
##  9 hbv            control     180
## 10 hbv            dili         74
## # ... with 16 more rows
```
…
**Q**: The key to counting each value of each variable is to `group_by` `dili`, `characteristic` **AND** `value` and then count the non-`NA` values as we did before. 

**A**: 

```r
df %>%
  mutate_if(is.integer, as.factor) %>%
  select_if(is.factor) %>%
  gather(key='characteristic', value='value', -c(id, dili)) %>%
  group_by(dili, characteristic, value) %>%
  summarise(num_obs=sum(!is.na(value)))
```

```
## # A tibble: 28 x 4
## # Groups:   dili, characteristic [?]
##    dili    characteristic value num_obs
##    <fct>   <chr>          <chr>   <int>
##  1 control alcohol        0         167
##  2 control alcohol        1          12
##  3 control alcohol        <NA>        0
##  4 control hbv            0         176
##  5 control hbv            1           4
##  6 control hbv            <NA>        0
##  7 control hcv            0         176
##  8 control hcv            1           3
##  9 control hcv            <NA>        0
## 10 control hiv            0         181
## # ... with 18 more rows
```
…
